1={3838 }
2={2707 }
3={3660 }
4={5956 }
5={281 }
6={6560 }
7={68 }
8={6583 }
9={5655 }
10={3544 }
11={3272 }
12={3836 }
13={496 }
14={6548 }
15={5900 }
16={5758 }
17={6698 }
18={6545 }
19={6762 }
20={641 }
21={2644 }
22={6962 }
23={446 }
24={3493 }
25={5731 }
26={590 }
27={2816 }
28={1346 }
29={3536 }
30={3495 }
31={2413 }
32={780 }
33={651 }
34={6069 }
35={6496 }
36={6286 }
37={3260 }
38={408 }
39={2845 }
40={1779 }
41={3938 }
42={563 }
43={716 }
44={5655 }
45={3623 }
46={674 }
47={976 }
48={949 }
50={519 }
51={6570 }
52={6693 }
53={3541 }
54={586 }
55={3524 }
56={336 }
57={6535 }
58={6637 }
59={6263 }
60={6524 }
61={3700 }
62={6334 }
63={3416 }
64={460 }
65={478 }
66={6028 }
67={2991 }
68={3473 }
69={424 }
70={3484 }
71={3550 }
72={5927 }
73={5912 }
74={3583 }
75={2937 }
76={2777 }
77={2846 }
78={5796 }
79={3741 }
80={577 }
81={3645 }
82={2854 }
83={5834 }
84={676 }
85={389 }
86={6558 }
87={5931 }
88={3147 }
89={2901 }
90={2916 }
91={2979 }
92={3559 }
93={513 }
94={3256 }
95={6359 }
96={3169 }
97={3615 }
98={6645 }
99={3341 }
100={1838 }
101={5320 }
102={5880 }
103={2671 }
104={2648 }
105={5689 }
106={6886 }
107={3609 }
108={6970 }
109={5881 }
110={6964 }
111={6898 }
112={3861 }
113={3359 }
114={2669 }
115={2518 }
116={2550 }
117={3958 }
118={601 }
119={385 }
120={6104 }
121={6179 }
122={253 }
123={3463 }
124={1349 }
125={3785 }
126={3209 }
127={507 }
128={7239 }
129={364 }
130={6448 }
131={6659 }
132={6335 }
133={3273 }
134={3408 }
135={3501 }
136={4048 }
137={6724 }
138={6788 }
139={2651 }
140={6790 }
141={5814 }
142={53 }
143={6038 }
144={6848 }
145={6832 }
146={6150 }
147={197 }
148={6698 }
149={6545 }
150={2644 }
152={3684 }
153={2823 }
154={2803 }
155={682 }
156={3901 }
157={925 }
158={2720 }
159={6661 }
160={2864 }
161={6606 }
162={910 }
163={3943 }
164={5546 }
165={2845 }
166={408 }
167={6856 }
168={6286 }
169={7183 }
170={6069 }
171={5758 }
172={3737 }
173={1176 }
174={726 }
175={3953 }
176={3260 }
177={1779 }
178={928 }
182={5616 }
183={7193 }
184={2692 }
185={5628 }
186={4078 }
187={6550 }
188={3288 }
189={5752 }
190={3194 }
191={6835 }
192={5771 }
193={6508 }
194={6232 }
195={149 }
196={737 }
197={574 }
198={6126 }
199={3457 }
200={3767 }
201={6593 }
202={158 }
203={488 }
204={331 }
205={3814 }
206={3453 }
207={6466 }
208={181 }
209={3993 }
210={6289 }
211={649 }
212={6952 }
213={3012 }
214={3065 }
215={134 }
216={2994 }
217={465 }
218={585 }
219={594 }
220={3580 }
221={6554 }
222={3228 }
223={3292 }
224={3364 }
225={522 }
226={6044 }
227={6474 }
228={6519 }
229={4458 }
230={6642 }
231={6669 }
232={3682 }
233={6674 }
234={6768 }
235={5777 }
236={6620 }
237={3774 }
238={6138 }
239={3426 }
240={6481 }
241={6239 }
242={6400 }
243={3432 }
244={6095 }
245={509 }
246={6720 }
247={6122 }
248={6941 }
249={228 }
250={6394 }
251={3201 }
252={3713 }
253={280 }
254={269 }
255={6406 }
256={6307 }
257={340 }
258={6398 }
259={2950 }
260={510 }
261={6855 }
262={105 }
263={6154 }
264={6959 }
265={487 }
266={7602 }
267={7519 }
268={4985 }
269={7734 }
270={1280 }
271={7829 }
272={1781 }
273={1994 }
274={7822 }
275={5106 }
276={6630 }
277={2177 }
278={7345 }
279={7636 }
281={4967 }
282={7016 }
283={531 }
284={4748 }
285={7471 }
286={1400 }
287={949 }
288={5523 }
289={5311 }
290={496 }
291={1498 }
292={4968 }
293={4489 }
294={4638 }
295={1968 }
296={1705 }
297={7580 }
298={7913 }
299={1232 }
300={2248 }
301={2152 }
302={4216 }
304={4611 }
306={1981 }
308={7123 }
309={4389 }
310={4934 }
311={2077 }
314={1542 }
315={1594 }
320={5421 }
321={1273 }
325={1114 }
326={5499 }
327={2344 }
328={6496 }
329={4858 }
330={1743 }
331={1848 }
332={1785 }
333={780 }
334={3838 }
335={1209 }
336={4367 }
337={1162 }
338={6221 }
340={5649 }
341={849 }
351={4005 }
357={2356 }
358={5728 }
359={3863 }
360={6885 }
361={6929 }
362={865 }
363={2687 }
364={5527 }
365={5557 }
366={1699 }
367={4756 }
368={7791 }
369={4402 }
370={4645 }
371={4507 }
372={4625 }
373={3544 }
374={2676 }
375={5061 }
376={4335 }
377={4926 }
378={2699 }
379={7756 }
380={1756 }
381={1916 }
382={1738 }
383={1753 }
384={4830 }
385={1414 }
386={7386 }
387={4892 }
388={4741 }
389={4759 }
390={7862 }
391={5652 }
392={1678 }
393={5795 }
394={4738 }
395={720 }
396={5695 }
397={4298 }
398={1336 }
399={6217 }
400={6171 }
401={3551 }
402={7243 }
403={4783 }
404={4250 }
405={5379 }
406={6498 }
407={5976 }
408={3739 }
409={2733 }
410={2070 }
411={1695 }
412={4442 }
413={1922 }
414={1477 }
416={1888 }
417={1982 }
418={7857 }
419={1636 }
420={4901 }
421={5098 }
422={4219 }
423={2334 }
424={7297 }
425={7395 }
426={2098 }
427={4472 }
428={4064 }
429={4353 }
430={7124 }
431={4204 }
433={1199 }
434={1116 }
435={2526 }
436={7430 }
437={7771 }
438={4045 }
439={2590 }
440={5497 }
441={1441 }
442={1685 }
443={5462 }
444={5075 }
445={5105 }
446={2549 }
447={4076 }
448={1149 }
449={4176 }
450={1062 }
451={461 }
452={738 }
453={2618 }
454={1086 }
455={4591 }
456={2520 }
457={4910 }
458={1046 }
459={1689 }
460={1058 }
461={7100 }
462={7808 }
463={7855 }
464={7361 }
465={634 }
466={5312 }
467={4790 }
468={5396 }
469={736 }
470={6754 }
471={1411 }
472={4706 }
473={7853 }
476={2051 }
500={1172 }
501={1219 }
502={5099 }
503={5141 }
504={4239 }
506={4191 }
507={5209 }
508={1203 }
509={1271 }
510={1624 }
511={1249 }
512={4182 }
513={7149 }
514={1483 }
515={4913 }
516={4812 }
517={2130 }
518={1900 }
519={1526 }
520={1478 }
521={4648 }
522={5175 }
523={2459 }
524={2500 }
525={7175 }
526={2608 }
527={5900 }
528={5536 }
529={2568 }
530={2557 }
531={1051 }
532={7087 }
533={2659 }
534={5447 }
535={7217 }
536={2091 }
537={1820 }
538={988 }
539={5139 }
540={1235 }
541={2207 }
542={1580 }
543={5222 }
544={1223 }
545={4851 }
546={2196 }
547={4238 }
548={3854 }
549={1953 }
550={5091 }
551={4403 }
552={7216 }
553={792 }
554={7184 }
555={1515 }
556={4498 }
557={5034 }
558={7840 }
559={5065 }
560={2021 }
561={1730 }
562={1714 }
563={1826 }
564={7751 }
565={4762 }
566={1762 }
567={1735 }
568={1918 }
569={7757 }
570={4734 }
571={4859 }
572={1292 }
573={7320 }
574={4839 }
575={2053 }
576={4743 }
577={4817 }
578={7789 }
579={7689 }
580={7768 }
581={4749 }
582={4265 }
583={5429 }
584={1493 }
585={1532 }
586={3495 }
587={7641 }
588={1912 }
589={4651 }
590={7298 }
591={994 }
592={1202 }
593={5484 }
594={4023 }
595={4053 }
596={2505 }
597={5518 }
598={1161 }
599={5142 }
600={5018 }
601={4375 }
602={7159 }
603={1884 }
605={1367 }
606={5541 }
607={7540 }
608={2701 }
609={3830 }
610={6937 }
611={828 }
612={3272 }
613={5488 }
614={4144 }
615={1027 }
616={5031 }
620={1612 }
621={7158 }
622={517 }
623={4368 }
624={1372 }
625={1340 }
626={7419 }
627={2359 }
628={7423 }
629={2537 }
630={970 }
631={962 }
632={979 }
633={980 }
634={5265 }
635={7264 }
636={7302 }
637={1823 }
638={2441 }
639={1044 }
640={4588 }
641={2436 }
642={975 }
643={948 }
644={940 }
645={1035 }
646={1039 }
647={2478 }
648={1034 }
649={5023 }
650={938 }
651={273 }
652={1210 }
653={1819 }
654={4695 }
655={855 }
656={7739 }
657={675 }
658={2048 }
659={2029 }
660={3165 }
661={2603 }
662={303 }
663={1127 }
664={3716 }
665={263 }
667={5394 }
668={1419 }
669={1602 }
670={5372 }
671={5608 }
672={5342 }
673={5346 }
674={4167 }
675={1631 }
676={190 }
677={7140 }
680={2142 }
681={1948 }
682={4875 }
683={4911 }
684={1022 }
685={7617 }
686={1440 }
687={4982 }
689={2273 }
690={5307 }
691={3284 }
692={641 }
693={5110 }
694={177 }
695={153 }
696={1121 }
697={3118 }
698={1751 }
699={7823 }
700={2094 }
701={4989 }
702={1093 }
703={1100 }
704={1081 }
705={1090 }
706={1057 }
707={1050 }
708={924 }
709={2188 }
710={1049 }
711={1139 }
712={1171 }
713={2165 }
714={7832 }
715={1638 }
716={6804 }
717={5848 }
718={2073 }
719={1833 }
720={4195 }
721={2404 }
722={6920 }
723={2203 }
724={1394 }
725={1000 }
726={7290 }
727={977 }
728={2570 }
729={4189 }
730={373 }
731={5401 }
732={5062 }
733={2329 }
734={7390 }
735={3764 }
736={2715 }
737={5358 }
738={4579 }
739={1869 }
740={3836 }
741={5441 }
742={7833 }
743={5552 }
744={1976 }
745={1150 }
746={1959 }
747={5169 }
748={1010 }
749={5517 }
750={1474 }
751={5158 }
753={1257 }
754={4888 }
755={4578 }
756={2028 }
761={4852 }
762={6464 }
763={6332 }
764={6643 }
765={7803 }
766={6743 }
767={7881 }
768={5598 }
769={2220 }
770={789 }
771={4969 }
772={3109 }
773={5036 }
774={1473 }
775={4426 }
776={4323 }
777={1490 }
778={7922 }
779={5013 }
780={4957 }
781={1975 }
782={1115 }
783={1470 }
784={3320 }
785={2902 }
786={4490 }
787={4512 }
788={6457 }
789={5845 }
790={102 }
791={3941 }
792={2129 }
793={2170 }
794={4222 }
795={3184 }
796={1004 }
797={1011 }
798={1031 }
799={6909 }
800={3906 }
801={3715 }
802={2668 }
803={4445 }
804={7878 }
805={1037 }
806={4123 }
807={6068 }
808={6368 }
809={7438 }
810={6692 }
811={4025 }
812={3656 }
813={5831 }
814={1539 }
815={6575 }
816={4294 }
817={7026 }
818={4039 }
819={4267 }
820={4218 }
821={6146 }
822={6135 }
823={6959 }
824={3163 }
825={3461 }
826={270 }
827={6925 }
828={3087 }
829={6339 }
830={3718 }
831={2912 }
832={3037 }
833={6349 }
834={3231 }
835={3841 }
836={716 }
837={2815 }
838={6712 }
839={564 }
840={5921 }
841={5944 }
842={5903 }
843={3032 }
844={7835 }
